module belajar-go

go 1.20

require (
	github.com/DATA-DOG/go-sqlmock v1.5.0
	github.com/go-playground/validator/v10 v10.12.0
	github.com/go-sql-driver/mysql v1.7.0
	github.com/julienschmidt/httprouter v1.3.0
	github.com/sirupsen/logrus v1.9.0
	github.com/stretchr/testify v1.8.2
)

require (
	github.com/davecgh/go-spew v1.1.1 // indirect
	github.com/go-playground/locales v0.14.1 // indirect
	github.com/go-playground/universal-translator v0.18.1 // indirect
	github.com/leodido/go-urn v1.2.2 // indirect
	github.com/pmezard/go-difflib v1.0.0 // indirect
	github.com/stretchr/objx v0.5.0 // indirect
	golang.org/x/crypto v0.7.0 // indirect
	golang.org/x/sys v0.6.0 // indirect
	golang.org/x/text v0.8.0 // indirect
	gopkg.in/yaml.v3 v3.0.1 // indirect
)
